com\booking\business\controller\UserController.class
com\booking\dataAccess\repository\RezervationRepository.class
com\booking\util\UserTransformation.class
com\booking\dataAccess\repository\OfferRepository.class
com\booking\util\OfferTransformation.class
com\booking\dataAccess\model\Offer.class
com\booking\util\HotelTransformation.class
com\booking\business\controller\HotelController.class
com\booking\util\ExceptionBusiness.class
com\booking\Service\HotelService.class
com\booking\dataAccess\model\User.class
com\booking\dataAccess\repository\UserRepository.class
com\booking\dataAccess\model\Rezervation.class
com\booking\Service\RezervationService.class
com\booking\Service\UserService.class
com\booking\business\dto\UserDTO.class
com\booking\dataAccess\model\Hotel.class
com\booking\util\RezervationTransformation.class
com\booking\business\controller\RezervationController.class
com\booking\business\dto\RezervationDTO.class
com\booking\ProjectsdApplication.class
com\booking\Service\OfferService.class
com\booking\business\dto\HotelDTO.class
com\booking\Service\EmailService.class
com\booking\util\ExceptionHandle.class
com\booking\business\controller\OfferController.class
com\booking\dataAccess\repository\HotelRepository.class
com\booking\business\dto\OfferDTO.class
